<?xml version="1.0" encoding="utf-8"?>
<!-- Generator: Adobe Illustrator 15.0.0, SVG Export Plug-In . SVG Version: 6.00 Build 0)  -->
<!DOCTYPE svg PUBLIC "-//W3C//DTD SVG 1.1//EN" "http://www.w3.org/Graphics/SVG/1.1/DTD/svg11.dtd">
<svg version="1.1" id="Layer_1" xmlns="http://www.w3.org/2000/svg" xmlns:xlink="http://www.w3.org/1999/xlink" x="0px" y="0px"
	 width="26px" height="26px" viewBox="0 0 26 26" enable-background="new 0 0 26 26" xml:space="preserve">
<rect fill="none" width="26" height="26"/>
<path fill="#000000" d="M8,23v2c0,0.552-0.448,1-1,1H5c-0.552,0-1-0.448-1-1v-2H8z"/>
<path fill="#000000" d="M22,23v2c0,0.552-0.448,1-1,1h-2c-0.552,0-1-0.448-1-1v-2H22z"/>
<path fill="#000000" d="M22,8c-0.385-2.552-1.807-3.852-4-4.478V3c0-0.551-0.449-1-1-1H9C8.449,2,8,2.449,8,3v0.496
	C5.813,4.102,4.395,5.387,4,8c-0.157,1.039-1,6.036-1,8c0,2.886,0,6,0,6c0,1.656,1.344,2,3,2h14c1.656,0,3-0.344,3-2
	c0,0,0-2.636,0-6C23,14.002,22.104,8.693,22,8z M10,3h6c0.552,0,0.552,1,0,1h-6C9.448,4,9.448,3,10,3z M7.5,21.266
	c-0.976,0-1.766-0.79-1.766-1.766s0.79-1.766,1.766-1.766c0.975,0,1.766,0.79,1.766,1.766S8.475,21.266,7.5,21.266z M18.5,21.266
	c-0.976,0-1.766-0.79-1.766-1.766s0.79-1.766,1.766-1.766c0.975,0,1.766,0.79,1.766,1.766S19.475,21.266,18.5,21.266z M19.59,14
	H6.41c-0.53,0-1-0.453-1-0.969s0.069-1.582,0.567-3.733C6.733,6.034,6.553,5.938,13,5.938s6.267,0.097,7.022,3.36
	c0.498,2.151,0.567,3.218,0.567,3.733S20.12,14,19.59,14z"/>
</svg>
