<?xml version="1.0" encoding="iso-8859-1"?>
<!-- Generator: Adobe Illustrator 16.0.0, SVG Export Plug-In . SVG Version: 6.00 Build 0)  -->
<!DOCTYPE svg PUBLIC "-//W3C//DTD SVG 1.1//EN" "http://www.w3.org/Graphics/SVG/1.1/DTD/svg11.dtd">
<svg version="1.1" id="Capa_1" xmlns="http://www.w3.org/2000/svg" xmlns:xlink="http://www.w3.org/1999/xlink" x="0px" y="0px"
	 width="36.933px" height="44.352px" viewBox="0 0 36.933 44.352" style="enable-background:new 0 0 36.933 44.352;"
	 xml:space="preserve">
<path d="M31.924,0H5.009C2.244,0,0,2.438,0,5.442v29.251c0,1.994,0.992,3.733,2.464,4.682v3.122c0,1.024,1.658,1.854,3.703,1.854
	c2.046,0,3.704-0.829,3.704-1.854v-2.36h4.535V40.13h9.373v0.007h3.479v2.36c0,1.024,1.658,1.854,3.703,1.854
	s3.703-0.829,3.703-1.854v-3.252c1.364-0.972,2.269-2.646,2.269-4.552V5.442C36.933,2.438,34.69,0,31.924,0z M10.682,2.324h15.569
	v1.512H10.682V2.324z M3.976,31.281v-3.635h9.826v3.635H3.976z M14.406,39.675v-2.882h9.373v2.882H14.406z M33.455,31.281h-9.827
	v-3.635h9.827V31.281z M33.888,18.788c0,0.373-0.652,0.676-1.459,0.676H4.504c-0.806,0-1.458-0.303-1.458-0.676V5.871
	c0-0.374,0.652-0.673,1.458-0.673h27.925c0.807,0,1.459,0.299,1.459,0.673V18.788z"/>
<g>
</g>
<g>
</g>
<g>
</g>
<g>
</g>
<g>
</g>
<g>
</g>
<g>
</g>
<g>
</g>
<g>
</g>
<g>
</g>
<g>
</g>
<g>
</g>
<g>
</g>
<g>
</g>
<g>
</g>
</svg>
